WX,Ast-2st,-106.66038486011432,-0.49881239435358493,696.3909589924276
WX,Bst-1st,-107.41838671930086,0.4616007305358204,-668.9940257543032
WX,Bst-2st,-106.47480030646196,-0.32567919546820906,683.5832933002266
WX,Ast-1st,-107.35070787629907,0.35706697419075123,-699.3580006682517
